…
    Examples

train <- smocc_200[1:1198, ]
test <- smocc_200[1199:1940, ]

# Fit
fit <- brokenstick(hgt.z ~ age | id, data = train, knots = 0:3)

# Predict, with preprocessing
predict(fit, test)
#> # A tibble: 742 x 1
#>    .pred
#>    <dbl>
#>  1 0.319
#>  2 0.325
#>  3 0.332
#>  4 0.342
#>  5 0.362
#>  6 0.387
#>  7 0.406
#>  8 0.386
#>  9 0.356
#> 10 0.322
#> # … with 732 more rows
…
